module gitlab.com/hackandsla.sh/letterbox

go 1.15

require (
	blitiri.com.ar/go/spf v1.1.0
	github.com/ProtonMail/gopenpgp/v2 v2.0.1
	github.com/abice/go-enum v0.2.3
	github.com/alexedwards/argon2id v0.0.0-20200420065805-90c52fcb498a
	github.com/asaskevich/govalidator v0.0.0-20200428143746-21a406dcc535 // indirect
	github.com/docker/go-units v0.4.0
	github.com/emersion/go-smtp v0.13.0
	github.com/go-ozzo/ozzo-validation v3.6.0+incompatible
	github.com/go-ozzo/ozzo-validation/v4 v4.2.1
	github.com/go-test/deep v1.0.6
	github.com/google/go-cmp v0.5.2 // indirect
	github.com/jaredfolkins/badactor v1.1.0
	github.com/jinzhu/gorm v1.9.12
	github.com/json-iterator/go v1.1.9
	github.com/julienschmidt/httprouter v1.3.0
	github.com/kr/text v0.2.0 // indirect
	github.com/lib/pq v1.3.0
	github.com/markbates/pkger v0.17.1
	github.com/maxbrunsfeld/counterfeiter/v6 v6.2.3
	github.com/mitchellh/mapstructure v1.3.2 // indirect
	github.com/niemeyer/pretty v0.0.0-20200227124842-a10e7caefd8e // indirect
	github.com/onsi/ginkgo v1.13.0 // indirect
	github.com/pelletier/go-toml v1.8.0 // indirect
	github.com/prometheus/client_golang v1.6.0
	github.com/prometheus/common v0.9.1
	github.com/sirupsen/logrus v1.7.0 // indirect
	github.com/slok/go-http-metrics v0.6.1
	github.com/spf13/afero v1.3.2 // indirect
	github.com/spf13/cast v1.3.1 // indirect
	github.com/spf13/cobra v1.1.1
	github.com/spf13/jwalterweatherman v1.1.0 // indirect
	github.com/spf13/viper v1.7.1
	github.com/stretchr/objx v0.2.0 // indirect
	github.com/stretchr/testify v1.6.1
	github.com/toorop/go-dkim v0.0.0-20200526084421-76378ae5207e
	github.com/unrolled/secure v1.0.7
	go.uber.org/zap v1.15.0
	golang.org/x/crypto v0.0.0-20201012173705-84dcc777aaee
	golang.org/x/net v0.0.0-20201010224723-4f7140c49acb
	golang.org/x/sys v0.0.0-20201009025420-dfb3f7c4e634 // indirect
	golang.org/x/tools v0.0.0-20201013201025-64a9e34f3752 // indirect
	google.golang.org/appengine v1.6.6 // indirect
	google.golang.org/protobuf v1.25.0 // indirect
	gopkg.in/alexcesaro/quotedprintable.v3 v3.0.0-20150716171945-2caba252f4dc // indirect
	gopkg.in/check.v1 v1.0.0-20200227125254-8fa46927fb4f // indirect
	gopkg.in/gomail.v2 v2.0.0-20160411212932-81ebce5c23df
	gopkg.in/ini.v1 v1.57.0 // indirect
	gopkg.in/yaml.v3 v3.0.0-20200615113413-eeeca48fe776 // indirect
	honnef.co/go/tools v0.0.1-2020.1.6 // indirect
)

replace golang.org/x/crypto => github.com/ProtonMail/crypto v0.0.0-20200416114516-1fa7f403fb9c
